^C:\USERS\SVARS\DOCUMENTS\PROJECT NO CPP\14HOM\14HOM.CPP
C:\USERS\SVARS\DOCUMENTS\PROJECT NO CPP\14HOM\X64\DEBUG\VC143.PDB
C:\USERS\SVARS\DOCUMENTS\PROJECT NO CPP\14HOM\X64\DEBUG\VC143.IDB
C:\USERS\SVARS\DOCUMENTS\PROJECT NO CPP\14HOM\X64\DEBUG\14HOM.OBJ
