^C:\USERS\SVARS\DOCUMENTS\PROJECT NO CPP\14HOM\X64\DEBUG\14HOM.OBJ
C:\USERS\SVARS\DOCUMENTS\PROJECT NO CPP\14HOM\X64\DEBUG\14HOM.EXE
C:\USERS\SVARS\DOCUMENTS\PROJECT NO CPP\14HOM\X64\DEBUG\14HOM.ILK
C:\USERS\SVARS\DOCUMENTS\PROJECT NO CPP\14HOM\X64\DEBUG\14HOM.PDB
